{
  "images" : [
    {
      "idiom" : "universal",
      "filename" : "BlankImage.pdf",
      "scale" : "1x"
    },
    {
      "idiom" : "universal",
      "filename" : "BlankImage-1.pdf",
      "scale" : "2x"
    },
    {
      "idiom" : "universal",
      "filename" : "BlankImage-2.pdf",
      "scale" : "3x"
    }
  ],
  "info" : {
    "version" : 1,
    "author" : "xcode"
  }
}